…
Make a table showing the three most popular items in each of the aisles
“baking ingredients”, “dog food care”, and “packaged vegetables
fruits”. Include the number of times each item is ordered in your
table.

``` r
instacart %>% 
  filter(aisle == c("baking ingredients", "dog food care", "packaged vegetables fruits" )) %>% 
  select(product_name, aisle) %>%   
  group_by(aisle, product_name) %>% 
  count()
```

    ## # A tibble: 1,114 x 3
    ## # Groups:   aisle, product_name [1,114]
    ##    aisle              product_name                                        n
    ##    <chr>              <chr>                                           <int>
    ##  1 baking ingredients 1 to 1 Gluten Free Baking Flour                     5
    ##  2 baking ingredients 1-to-1 Baking Flour, Gluten/Wheat/Dairy Free        2
    ##  3 baking ingredients 100% Cacao Unsweetened Chocolate Baking Bar         3
    ##  4 baking ingredients 100% Natural Sweetener Zero Calorie Packets        16
    ##  5 baking ingredients 100% Natural Zero Calorie Sweetener                 2
    ##  6 baking ingredients 100% Organic Einkorn  All-Purpose Flour             2
    ##  7 baking ingredients 100% Organic Premium Whole Wheat Flour              2
    ##  8 baking ingredients 100% Organic Unbleached All-Purpose Flour           8
    ##  9 baking ingredients 100% Organic Unbleached White Whole Wheat Flour     1
    ## 10 baking ingredients 100% Pure Corn Starch                              22
    ## # … with 1,104 more rows
…
